{
    "count": 1295,
    "next": "https://pokeapi.co/api/v2/pokemon-form?offset=20&limit=20",
    "previous": null,
    "results": [
        {
            "name": "bulbasaur",
            "url": "https://pokeapi.co/api/v2/pokemon-form/1/"
        },
        {
            "name": "ivysaur",
            "url": "https://pokeapi.co/api/v2/pokemon-form/2/"
        },
        {
            "name": "venusaur",
            "url": "https://pokeapi.co/api/v2/pokemon-form/3/"
        },
        {
            "name": "charmander",
            "url": "https://pokeapi.co/api/v2/pokemon-form/4/"
        },
        {
            "name": "charmeleon",
            "url": "https://pokeapi.co/api/v2/pokemon-form/5/"
        },
        {
            "name": "charizard",
            "url": "https://pokeapi.co/api/v2/pokemon-form/6/"
        },
        {
            "name": "squirtle",
            "url": "https://pokeapi.co/api/v2/pokemon-form/7/"
        },
        {
            "name": "wartortle",
            "url": "https://pokeapi.co/api/v2/pokemon-form/8/"
        },
        {
            "name": "blastoise",
            "url": "https://pokeapi.co/api/v2/pokemon-form/9/"
        },
        {
            "name": "caterpie",
            "url": "https://pokeapi.co/api/v2/pokemon-form/10/"
        },
        {
            "name": "metapod",
            "url": "https://pokeapi.co/api/v2/pokemon-form/11/"
        },
        {
            "name": "butterfree",
            "url": "https://pokeapi.co/api/v2/pokemon-form/12/"
        },
        {
            "name": "weedle",
            "url": "https://pokeapi.co/api/v2/pokemon-form/13/"
        },
        {
            "name": "kakuna",
            "url": "https://pokeapi.co/api/v2/pokemon-form/14/"
        },
        {
            "name": "beedrill",
            "url": "https://pokeapi.co/api/v2/pokemon-form/15/"
        },
        {
            "name": "pidgey",
            "url": "https://pokeapi.co/api/v2/pokemon-form/16/"
        },
        {
            "name": "pidgeotto",
            "url": "https://pokeapi.co/api/v2/pokemon-form/17/"
        },
        {
            "name": "pidgeot",
            "url": "https://pokeapi.co/api/v2/pokemon-form/18/"
        },
        {
            "name": "rattata",
            "url": "https://pokeapi.co/api/v2/pokemon-form/19/"
        },
        {
            "name": "raticate",
            "url": "https://pokeapi.co/api/v2/pokemon-form/20/"
        }
    ]
}

{
    "count": 1295,
    "next": "https://pokeapi.co/api/v2/pokemon-form?offset=40&limit=20",
    "previous": "https://pokeapi.co/api/v2/pokemon-form?offset=0&limit=20",
    "results": [
        {
            "name": "spearow",
            "url": "https://pokeapi.co/api/v2/pokemon-form/21/"
        },
        {
            "name": "fearow",
            "url": "https://pokeapi.co/api/v2/pokemon-form/22/"
        },
        {
            "name": "ekans",
            "url": "https://pokeapi.co/api/v2/pokemon-form/23/"
        },
        {
            "name": "arbok",
            "url": "https://pokeapi.co/api/v2/pokemon-form/24/"
        },
        {
            "name": "pikachu",
            "url": "https://pokeapi.co/api/v2/pokemon-form/25/"
        },
        {
            "name": "raichu",
            "url": "https://pokeapi.co/api/v2/pokemon-form/26/"
        },
        {
            "name": "sandshrew",
            "url": "https://pokeapi.co/api/v2/pokemon-form/27/"
        },
        {
            "name": "sandslash",
            "url": "https://pokeapi.co/api/v2/pokemon-form/28/"
        },
        {
            "name": "nidoran-f",
            "url": "https://pokeapi.co/api/v2/pokemon-form/29/"
        },
        {
            "name": "nidorina",
            "url": "https://pokeapi.co/api/v2/pokemon-form/30/"
        },
        {
            "name": "nidoqueen",
            "url": "https://pokeapi.co/api/v2/pokemon-form/31/"
        },
        {
            "name": "nidoran-m",
            "url": "https://pokeapi.co/api/v2/pokemon-form/32/"
        },
        {
            "name": "nidorino",
            "url": "https://pokeapi.co/api/v2/pokemon-form/33/"
        },
        {
            "name": "nidoking",
            "url": "https://pokeapi.co/api/v2/pokemon-form/34/"
        },
        {
            "name": "clefairy",
            "url": "https://pokeapi.co/api/v2/pokemon-form/35/"
        },
        {
            "name": "clefable",
            "url": "https://pokeapi.co/api/v2/pokemon-form/36/"
        },
        {
            "name": "vulpix",
            "url": "https://pokeapi.co/api/v2/pokemon-form/37/"
        },
        {
            "name": "ninetales",
            "url": "https://pokeapi.co/api/v2/pokemon-form/38/"
        },
        {
            "name": "jigglypuff",
            "url": "https://pokeapi.co/api/v2/pokemon-form/39/"
        },
        {
            "name": "wigglytuff",
            "url": "https://pokeapi.co/api/v2/pokemon-form/40/"
        }
    ]
}


// etc. vamos haciendo iteraciones hasta sacar los 1200